Propensity Modelling - Using h2o and DALEX to Estimate the Likelihood of Purchasing a Financial Product - Part 3 of 3 - Optimise Profit With the Expected Value Framework ·
…
Cost/Benefit for each customer - I will need to simulate these based on assumptions

Expected rates

Expected rates can be conveniently retrieved for all cut-off points using h2o.metric.

# Get expected rates by cutoff
expected_rates <- h2o.metric(perf_drf_final) %>%
    as.tibble() %>%
    select(threshold, tpr, fpr, fnr, tnr)

expected_rates

## # A tibble: 400 x 5
##    threshold     tpr      fpr   fnr   tnr
##        <dbl>   <dbl>    <dbl> <dbl> <dbl>
##  1     0.930 0       0.000136 1     1.00 
##  2     0.919 0.00112 0.000136 0.999 1.00 
##  3     0.893 0.00112 0.000272 0.999 1.00 
##  4     0.882 0.00224 0.000545 0.998 0.999
##  5     0.879 0.00336 0.000545 0.997 0.999
##  6     0.876 0.00671 0.000545 0.993 0.999
##  7     0.873 0.00783 0.000545 0.992 0.999
##  8     0.867 0.0123  0.000545 0.988 0.999
##  9     0.857 0.0145  0.000545 0.985 0.999
## 10     0.849 0.0157  0.000545 0.984 0.999
## # ... with 390 more rows
…
